/home/deleon/Projetos/labs-datatables-vraptor/src/main/java/br/com/willianantunes/util/OSValidator.java
/home/deleon/Projetos/labs-datatables-vraptor/src/main/java/br/com/willianantunes/labdatatables/controller/AuthController.java
/home/deleon/Projetos/labs-datatables-vraptor/src/main/java/br/com/willianantunes/util/tags/CustomTemplatesFinder.java
/home/deleon/Projetos/labs-datatables-vraptor/src/main/java/br/com/willianantunes/util/Utils.java
/home/deleon/Projetos/labs-datatables-vraptor/src/main/java/br/com/willianantunes/util/security/ProtectedConfigFile.java
/home/deleon/Projetos/labs-datatables-vraptor/src/main/java/br/com/willianantunes/labdatatables/repository/GenericRepository.java
/home/deleon/Projetos/labs-datatables-vraptor/src/main/java/br/com/willianantunes/labdatatables/business/GenericBusiness.java
/home/deleon/Projetos/labs-datatables-vraptor/src/main/java/br/com/willianantunes/labdatatables/business/UserBusiness.java
/home/deleon/Projetos/labs-datatables-vraptor/src/main/java/br/com/willianantunes/labdatatables/brutauth/handler/LoggedHandler.java
/home/deleon/Projetos/labs-datatables-vraptor/src/main/java/br/com/willianantunes/util/datatables/DtConsolidated.java
/home/deleon/Projetos/labs-datatables-vraptor/src/main/java/br/com/willianantunes/labdatatables/factory/MessageFactory.java
/home/deleon/Projetos/labs-datatables-vraptor/src/main/java/br/com/willianantunes/labdatatables/repository/UserRepository.java
/home/deleon/Projetos/labs-datatables-vraptor/src/main/java/br/com/willianantunes/util/datatables/DataTables.java
/home/deleon/Projetos/labs-datatables-vraptor/src/main/java/br/com/willianantunes/labdatatables/controller/UsersController.java
/home/deleon/Projetos/labs-datatables-vraptor/src/main/java/br/com/willianantunes/labdatatables/component/LoggedUser.java
/home/deleon/Projetos/labs-datatables-vraptor/src/main/java/br/com/willianantunes/util/security/Encryption.java
/home/deleon/Projetos/labs-datatables-vraptor/src/main/java/br/com/willianantunes/labdatatables/component/ConfigurationCreatorCustom.java
/home/deleon/Projetos/labs-datatables-vraptor/src/main/java/br/com/willianantunes/labdatatables/init/DataBaseInitializer.java
/home/deleon/Projetos/labs-datatables-vraptor/src/main/java/br/com/willianantunes/util/datatables/CommonController.java
/home/deleon/Projetos/labs-datatables-vraptor/src/main/java/br/com/willianantunes/labdatatables/model/User.java
/home/deleon/Projetos/labs-datatables-vraptor/src/main/java/br/com/willianantunes/labdatatables/controller/data/UserDataTables.java
/home/deleon/Projetos/labs-datatables-vraptor/src/main/java/br/com/willianantunes/util/datatables/DtOrder.java
/home/deleon/Projetos/labs-datatables-vraptor/src/main/java/br/com/willianantunes/util/datatables/DtColumn.java
/home/deleon/Projetos/labs-datatables-vraptor/src/main/java/br/com/willianantunes/util/datatables/DtSearch.java
/home/deleon/Projetos/labs-datatables-vraptor/src/main/java/br/com/willianantunes/labdatatables/brutauth/rules/LoggedRule.java
